\relax 
\providecommand\hyper@newdestlabel[2]{}
\providecommand\HyperFirstAtBeginDocument{\AtBeginDocument}
\HyperFirstAtBeginDocument{\ifx\hyper@anchor\@undefined
\global\let\oldcontentsline\contentsline
\gdef\contentsline#1#2#3#4{\oldcontentsline{#1}{#2}{#3}}
\global\let\oldnewlabel\newlabel
\gdef\newlabel#1#2{\newlabelxx{#1}#2}
\gdef\newlabelxx#1#2#3#4#5#6{\oldnewlabel{#1}{{#2}{#3}}}
\AtEndDocument{\ifx\hyper@anchor\@undefined
\let\contentsline\oldcontentsline
\let\newlabel\oldnewlabel
\fi}
\fi}
\global\let\hyper@last\relax 
\gdef\HyperFirstAtBeginDocument#1{#1}
\providecommand\HyField@AuxAddToFields[1]{}
\providecommand\HyField@AuxAddToCoFields[2]{}
\@writefile{toc}{\contentsline {section}{Introduction}{1}{section*.1}}
\@writefile{toc}{\contentsline {section}{Pattern libraries creation}{1}{section*.2}}
\@writefile{toc}{\contentsline {subsection}{Software dependencies}{1}{subsection*.3}}
\@writefile{toc}{\contentsline {subsection}{Setting up \texttt  {shades-lib}}{1}{subsection*.4}}
\@writefile{toc}{\contentsline {subsection}{Controlling \texttt  {shades-lib}}{2}{subsection*.5}}
\newpmemlabel{^_1}{2}
\@writefile{lof}{\contentsline {figure}{\numberline {1}{\ignorespaces Screenshot of a typical output of the command \texttt  {make check}}}{2}{subsection*.5}}
\@writefile{toc}{\contentsline {section}{Installing and Running \texttt  {shades}}{2}{section*.6}}
\@writefile{toc}{\contentsline {subsection}{Content and architecture}{2}{subsection*.7}}
\@writefile{toc}{\contentsline {subsection}{Software dependencies and patch}{2}{subsection*.8}}
\@writefile{toc}{\contentsline {subsection}{Installing \texttt  {shades}}{3}{subsection*.9}}
\@writefile{toc}{\contentsline {subsection}{Running \texttt  {shades}}{3}{subsection*.10}}
\ttl@finishall
